Cluster by Cell Type
…
#Check false positives by seeing how many of multiplets contain cells from both SI and Colon

fp <- getMultipletsForEdge(sObj, edges = data.frame(to = "C.Stem", from = "SI.Stem"), edge.cutoff = 0)
fp

## # A tibble: 57 x 3
##    multiplet               from   to     
##    <chr>                   <chr>  <chr>  
##  1 GFPpos.C1.Doublet.5.F9  C.Stem SI.Stem
##  2 GFPpos.SI1.Doublet.3.C5 C.Stem SI.Stem
##  3 GFPpos.SI1.Doublet.3.A3 C.Stem SI.Stem
##  4 GFPpos.SI1.Doublet.3.D3 C.Stem SI.Stem
##  5 GFPpos.SI1.Doublet.3.G9 C.Stem SI.Stem
##  6 GFPpos.C1.Doublet.5.C2  C.Stem SI.Stem
##  7 GFPpos.SI1.Doublet.3.A7 C.Stem SI.Stem
##  8 GFPpos.SI1.Doublet.3.F6 C.Stem SI.Stem
##  9 GFPpos.C1.Doublet.5.E4  C.Stem SI.Stem
## 10 GFPpos.SI1.Doublet.3.E9 C.Stem SI.Stem
## # ... with 47 more rows
…
